\relax 
\citation{Jakobsen}
\citation{Xiaoqiu}
\citation{Gao2014}
\citation{Chen,Chakravarty}
\citation{Hong}
\@writefile{toc}{\contentsline {section}{\numberline {I}Introduction}{1}}
\@writefile{lof}{\contentsline {figure}{\numberline {1}{\ignorespaces Accelerations when driving at different speed ranges. It can be observed that acceleration of $1m/s^2$ when the vehicle speed exceeds $100km/h$ would be abnormal, while the same acceleration would be normal when the speed is lower than $60km/h$.}}{1}}
\newlabel{fig:accelerate}{{1}{1}}
\citation{Xiaoqiu,Amarasinghe}
\citation{Chen,Chakravarty}
\citation{Zhao}
\citation{Dai}
\citation{Fazeen}
\citation{Taha}
\citation{Chen}
\citation{Quintero}
\citation{Hong}
\citation{Jaramillo}
\citation{Derick}
\citation{Li}
\citation{Miyajima}
\citation{Zoran}
\citation{Bolovinou}
\citation{Banerjee}
\citation{Lei}
\citation{Karatas,Angela}
\citation{tii,Eskin,Zimek}
\@writefile{toc}{\contentsline {section}{\numberline {II}Related work}{2}}
\newlabel{sec:related}{{II}{2}}
\@writefile{lof}{\contentsline {figure}{\numberline {2}{\ignorespaces Overview of \emph  {SafeDrive}.}}{3}}
\newlabel{fig:overview}{{2}{3}}
\@writefile{toc}{\contentsline {section}{\numberline {III}Overview of \emph  {SafeDrive}}{3}}
\newlabel{sec:overview}{{III}{3}}
\@writefile{lof}{\contentsline {figure}{\numberline {3}{\ignorespaces An example of \emph  {SG} in which bidirectional arrows represent correlational edges and unidirectional arrows represent contextual edges.}}{3}}
\newlabel{fig:sgexample}{{3}{3}}
\citation{Chandola}
\@writefile{toc}{\contentsline {section}{\numberline {IV}Online abnormal detection with \emph  {SafeDrive}}{4}}
\newlabel{sec:online}{{IV}{4}}
\@writefile{lof}{\contentsline {figure}{\numberline {4}{\ignorespaces Temporal sub-graph that contains an anomaly, where a red dashed line represents an abnormal connection with low probability. (a) Contextual Anomaly, (b) Correlational Anomaly.}}{4}}
\newlabel{fig:temporalsubgraph}{{4}{4}}
\citation{aaa}
\@writefile{loa}{\contentsline {algorithm}{\numberline {1}{\ignorespaces Online Anomaly Detection Algorithm}}{5}}
\newlabel{alg:mining_algorithm}{{1}{5}}
\@writefile{toc}{\contentsline {section}{\numberline {V}Evaluation}{5}}
\newlabel{sec:eval}{{V}{5}}
\@writefile{toc}{\contentsline {subsection}{\numberline {\unhbox \voidb@x \hbox {V-A}}System and Data Description}{5}}
\@writefile{lot}{\contentsline {table}{\numberline {I}{\ignorespaces Data specification}}{5}}
\newlabel{table:data}{{I}{5}}
\@writefile{lot}{\contentsline {table}{\numberline {II}{\ignorespaces Abnormal driving behaviors detected by \emph  {SafeDrive}}}{6}}
\newlabel{table:abnormal}{{II}{6}}
\@writefile{toc}{\contentsline {subsection}{\numberline {\unhbox \voidb@x \hbox {V-B}}Anomaly-Category Analysis}{6}}
\@writefile{lof}{\contentsline {figure}{\numberline {5}{\ignorespaces Examples of contextual driving anomalies.}}{6}}
\newlabel{fig:contextualexample}{{5}{6}}
\@writefile{toc}{\contentsline {subsubsection}{\numberline {\unhbox \voidb@x \hbox {V-B}1}Contextual Abnormal Behaviors}{6}}
\@writefile{lof}{\contentsline {figure}{\numberline {6}{\ignorespaces The connection number of each speed state.}}{7}}
\newlabel{fig:connection}{{6}{7}}
\@writefile{toc}{\contentsline {subsubsection}{\numberline {\unhbox \voidb@x \hbox {V-B}2}Correlational Abnormal Behaviors}{7}}
\@writefile{lof}{\contentsline {figure}{\numberline {7}{\ignorespaces Examples of correlational driving anomaly.}}{7}}
\newlabel{fig:correlationalexample}{{7}{7}}
\@writefile{toc}{\contentsline {subsection}{\numberline {\unhbox \voidb@x \hbox {V-C}}Quantitative Evaluation}{7}}
\newlabel{sec:perf}{{\unhbox \voidb@x \hbox {V-C}}{7}}
\@writefile{lof}{\contentsline {figure}{\numberline {8}{\ignorespaces FPR under different threshold values.}}{8}}
\newlabel{fig:fpr}{{8}{8}}
\@writefile{lof}{\contentsline {figure}{\numberline {9}{\ignorespaces Recall evaluation for different types of anomalies.}}{8}}
\newlabel{fig:recall}{{9}{8}}
\@writefile{lot}{\contentsline {table}{\numberline {III}{\ignorespaces Precision of HMM-based detector and \emph  {SafeDrive}}}{8}}
\newlabel{table:precision}{{III}{8}}
\bibcite{Jakobsen}{1}
\bibcite{Xiaoqiu}{2}
\bibcite{Gao2014}{3}
\bibcite{Chen}{4}
\bibcite{Chakravarty}{5}
\bibcite{Hong}{6}
\bibcite{Amarasinghe}{7}
\bibcite{Zhao}{8}
\bibcite{Dai}{9}
\bibcite{Fazeen}{10}
\bibcite{Taha}{11}
\bibcite{Quintero}{12}
\bibcite{Jaramillo}{13}
\bibcite{Derick}{14}
\bibcite{Li}{15}
\bibcite{Bolovinou}{16}
\bibcite{Zoran}{17}
\bibcite{Chandola}{18}
\bibcite{Miyajima}{19}
\bibcite{Karatas}{20}
\bibcite{Angela}{21}
\bibcite{Banerjee}{22}
\bibcite{Lei}{23}
\@writefile{toc}{\contentsline {section}{\numberline {VI}Conclusion}{9}}
\newlabel{sec:conclusion}{{VI}{9}}
\@writefile{toc}{\contentsline {section}{\numberline {VII}Acknowledgment}{9}}
\newlabel{sec:acknowledgement}{{VII}{9}}
\@writefile{toc}{\contentsline {section}{References}{9}}
\bibcite{tii}{24}
\bibcite{Eskin}{25}
\bibcite{Zimek}{26}
\bibcite{aaa}{27}
\@writefile{toc}{\contentsline {section}{Biographies}{10}}
\@writefile{toc}{\contentsline {subsection}{Mingming\nobreakspace  {}Zhang}{10}}
\@writefile{toc}{\contentsline {subsection}{Chao\nobreakspace  {}Chen}{10}}
\@writefile{toc}{\contentsline {subsection}{Tianyu\nobreakspace  {}Wo}{10}}
\@writefile{toc}{\contentsline {subsection}{Tao\nobreakspace  {}Xie}{10}}
\@writefile{toc}{\contentsline {subsection}{Md\nobreakspace  {}Zakirul\nobreakspace  {}Alam\nobreakspace  {}Bhuiyan}{10}}
\@writefile{toc}{\contentsline {subsection}{Xuelian\nobreakspace  {}Lin}{10}}
